mpu_armv7.h:191:22:ARM_MPU_Enable	16	static
mpu_armv7.h:203:22:ARM_MPU_Disable	4	static
fsl_clock.h:1016:24:CLOCK_GetMux	16	static
fsl_clock.h:1052:24:CLOCK_GetDiv	16	static
fsl_clock.h:1115:24:CLOCK_GetOscFreq	4	static
fsl_iomuxc.h:1298:20:IOMUXC_SetPinConfig	24	static
board.c:24:10:BOARD_DebugConsoleSrcFreq	24	static
board.c:43:6:BOARD_InitDebugConsole	16	static
board.c:235:6:BOARD_ConfigMPU	48	static
board.c:374:6:BOARD_SD_Pin_Config	24	static
board.c:407:6:BOARD_MMC_Pin_Config	16	static
